[{
  "id": 4,
  "label": "Main Folder",
  "isFolder": true,
  "children": [{
    "id": 1,
    "label": "Vasia",
    "isFolder": true,
    "children": [{
      "id": 2,
      "label": "Petia",
      "isFolder": true,
      "children": [{
        "id": 3,
        "isFolder": true,
        "label": "Ivan"
      }]
    },
      {
        "id": 8,
        "label": "Valera",
        "isFolder": true,
        "children": [{
          "id": 9,
          "isFolder": true,
          "label": "Bandera"
        }]
      }]
  }, {
    "id": 5,
    "label": "Embed folder",
    "isFolder": true,
    "children": [{
      "id": 6,
      "isFolder": false,
      "label": "Ivan_Vushnia",
      "ext": "txt"
    }]
  }, {
    "id": 7,
    "isFolder": false,
    "isLeaf": false,
    "label": "Petro_Kopuzia",
    "ext": "png"
  }]
}]
